{
  "project_info": {
    "project_number": "871787105239",
    "project_id": "boyproject123-3bb14",
    "storage_bucket": "boyproject123-3bb14.appspot.com"
  },
  "client": [
    {
      "client_info": {
        "mobilesdk_app_id": "1:871787105239:android:35de996f203113adc45992",
        "android_client_info": {
          "package_name": "com.example.mini_ecommerce"
        }
      },
      "oauth_client": [],
      "api_key": [
        {
          "current_key": "AIzaSyDW6z-KNG3XQyWdqK8BlV8D1sAlOPtFs2o"
        }
      ],
      "services": {
        "appinvite_service": {
          "other_platform_oauth_client": []
        }
      }
    }
  ],
  "configuration_version": "1"
}